{"scripts": [
    {
      "id": "097d3d7b-7cf2-4e7d-adf5-323d39e9eb4d",
        "script": "%7B%22scrapePage%22%3Afunction%20scrapePage(details)%20%7B%0A%20%20function%20mergeUniqueObjects(originalArray%2C%20newArray)%20%7B%0A%20%20%20%20var%20uniqueObjects%20%3D%20newArray.filter(function%20(newObj)%20%7B%0A%20%20%20%20%20%20return%20!originalArray.some(function%20(originalObj)%20%7B%0A%20%20%20%20%20%20%20%20return%20originalObj.url%20%3D%3D%3D%20newObj.url%3B%0A%20%20%20%20%20%20%7D)%3B%0A%20%20%20%20%7D)%3B%0A%20%20%20%20return%20originalArray.concat(uniqueObjects)%3B%0A%20%20%7D%0A%20%20return%20new%20Promise(function%20(resolve)%20%7B%0A%20%20%20%20var%20totalList%20%3D%20%5B%5D%3B%0A%20%20%20%20var%20interval%20%3D%20setInterval(function%20()%20%7B%0A%20%20%20%20%20%20window.scrollBy(0%2C%20window.innerHeight%20%2B%20Math.floor(Math.random()%20*%20200))%3B%0A%20%20%20%20%20%20%2F%2FClick%20nsfw%20warning%0A%20%20%20%20%20%20if%20(document.querySelectorAll('.r-6wcr4z%20div%5Brole%3Dbutton%5D').length%20%3E%200)%20document.querySelectorAll('.r-6wcr4z%20div%5Brole%3Dbutton%5D')%5B0%5D.click()%3B%0A%20%20%20%20%20%20var%20listData%20%3D%20%5B%5D.map.call(document.querySelectorAll('section%20div%5Bdata-testid%3D%22cellInnerDiv%22%5D%20article.r-6416eg')%2C%20function%20(item)%20%7B%0A%20%20%20%20%20%20%20%20var%20scraped%20%3D%20%7B%7D%3B%0A%20%20%20%20%20%20%20%20var%20reblogSpan%20%3D%20item.querySelectorAll('span%5Bstyle%3D%22-webkit-line-clamp%3A%202%3B%22%5D')%3B%0A%20%20%20%20%20%20%20%20var%20reblogSpanText%20%3D%20reblogSpan.length%20%3E%200%20%3F%20reblogSpan%5B0%5D.textContent%20%3A%20null%3B%0A%20%20%20%20%20%20%20%20if%20(reblogSpanText)%20%7B%0A%20%20%20%20%20%20%20%20%20%20scraped.isReblog%20%3D%20!!reblogSpanText.match(%2FRetweeted%2F)%3B%0A%20%20%20%20%20%20%20%20%7D%0A%20%20%20%20%20%20%20%20var%20retweets%20%3D%20item.querySelectorAll('div%5Bdata-testid%3Dretweet%5D')%5B0%5D.textContent.trim()%3B%0A%20%20%20%20%20%20%20%20var%20votesRaw%20%3D%20item.querySelectorAll('div%5Bdata-testid%3Dlike%5D')%5B0%5D.textContent.trim()%3B%0A%20%20%20%20%20%20%20%20var%20comments%20%3D%20item.querySelectorAll('div%5Bdata-testid%3Dreply%5D')%5B0%5D.textContent.trim()%3B%0A%20%20%20%20%20%20%20%20var%20time%20%3D%20item.querySelector('time')%3B%0A%20%20%20%20%20%20%20%20if%20(time)%20%7B%0A%20%20%20%20%20%20%20%20%20%20scraped.created%20%3D%20new%20Date(time.getAttribute('datetime')).getTime()%3B%0A%20%20%20%20%20%20%20%20%7D%20else%20%7B%0A%20%20%20%20%20%20%20%20%20%20return%20false%3B%0A%20%20%20%20%20%20%20%20%7D%0A%20%20%20%20%20%20%20%20var%20permalink%20%3D%20time.closest('a').getAttribute('href')%20%7C%7C%20%22%22%3B%0A%20%20%20%20%20%20%20%20var%20linkA%20%3D%20item.querySelectorAll('a%5Brel%3D%22%20noopener%20noreferrer%22%5D')%3B%0A%20%20%20%20%20%20%20%20var%20images%20%3D%20item.querySelectorAll('div%5Baria-label%3DImage%5D%20img')%2C%0A%20%20%20%20%20%20%20%20%20%20imgUrls%20%3D%20%5B%5D%2C%0A%20%20%20%20%20%20%20%20%20%20href%2C%0A%20%20%20%20%20%20%20%20%20%20parts%3B%0A%20%20%20%20%20%20%20%20if%20(images.length%20%3E%200)%20%7B%0A%20%20%20%20%20%20%20%20%20%20images.forEach(function%20(image)%20%7B%0A%20%20%20%20%20%20%20%20%20%20%20%20href%20%3D%20image.getAttribute('src')%3B%0A%20%20%20%20%20%20%20%20%20%20%20%20parts%20%3D%20href.split('%26')%3B%0A%20%20%20%20%20%20%20%20%20%20%20%20imgUrls.push(parts%5B0%5D%20%2B%20'%26name%3D900x900')%3B%0A%20%20%20%20%20%20%20%20%20%20%7D)%3B%0A%20%20%20%20%20%20%20%20%7D%0A%20%20%20%20%20%20%20%20var%20domain%20%3D%20'twitter.com'%3B%0A%20%20%20%20%20%20%20%20scraped.title%20%3D%20item.querySelectorAll('div%20%3E%20div.r-bnwqim').length%20%3E%200%20%3F%20item.querySelectorAll('div%20%3E%20div.r-bnwqim')%5B0%5D.textContent%20%3A%20''%3B%0A%20%20%20%20%20%20%20%20scraped.link%20%3D%20linkA.length%20%3E%200%20%3F%20linkA%5B0%5D.getAttribute('href')%20%3A%20false%3B%0A%20%20%20%20%20%20%20%20scraped.votes%20%3D%20votesRaw.toLowerCase()%20%3F%20votesRaw.toLowerCase()%20%3A%201%3B%0A%20%20%20%20%20%20%20%20scraped.reblogs%20%3D%20retweets%20%3F%20parseInt(retweets%2C%2010)%20%3A%200%3B%0A%20%20%20%20%20%20%20%20scraped.commentCount%20%3D%20parseInt(comments%2C%2010)%20%7C%7C%200%3B%0A%20%20%20%20%20%20%20%20scraped.url%20%3D%20%22https%3A%2F%2F%22%20%2B%20domain%20%2B%20permalink%3B%0A%20%20%20%20%20%20%20%20scraped.displayName%20%3D%20item.querySelectorAll('a%20div.r-3s2u2q%20span%20span')%5B0%5D.textContent%3B%0A%20%20%20%20%20%20%20%20scraped.username%20%3D%20item.querySelectorAll('a%20div%20div%5Bdir%3Dltr%5D%20span')%5B0%5D.textContent%3B%0A%20%20%20%20%20%20%20%20scraped.images%20%3D%20imgUrls%3B%0A%20%20%20%20%20%20%20%20scraped.profileURL%20%3D%20%22https%3A%2F%2F%22%20%2B%20domain%20%2B%20item.querySelectorAll('article%5Bdata-testid%3Dtweet%5D%20.r-zl2h9q%20a')%5B0%5D.getAttribute('href')%3B%0A%20%20%20%20%20%20%20%20scraped.autoEmbed%20%3D%20'url'%3B%0A%20%20%20%20%20%20%20%20return%20scraped%3B%0A%20%20%20%20%20%20%7D).filter(function%20(item)%20%7B%0A%20%20%20%20%20%20%20%20return%20item%20!%3D%3D%20false%3B%0A%20%20%20%20%20%20%7D)%3B%0A%20%20%20%20%20%20console.log('Untitled-2%2071'%2C%20listData%2C%20totalList)%3B%0A%20%20%20%20%20%20totalList%20%3D%20mergeUniqueObjects(totalList%2C%20listData)%3B%0A%20%20%20%20%20%20if%20(totalList.length%20%3E%2010)%20%7B%0A%20%20%20%20%20%20%20%20console.log('Untitled-2%2087'%2C%20totalList)%3B%0A%20%20%20%20%20%20%20%20return%20resolve(%7B%0A%20%20%20%20%20%20%20%20%20%20list%3A%20listData%0A%20%20%20%20%20%20%20%20%7D)%3B%0A%20%20%20%20%20%20%7D%0A%20%20%20%20%7D%2C%201000)%3B%0A%20%20%7D)%3B%0A%7D%7D",
        "name": "Twitter remote",
      "regex": "twitter.com",
      "updateMethod": "screen",
      "description": "Screen scrapes Twitter profiles"
    },
    {
      "description": "Screen scrapes public Facebook pages and groups",
      "id": "84b46744-5de3-4168-b50e-05ea98c9b119",
      "name": "Facebook public pages and groups",
      "regex": "facebook.com",
      "script": "%7B%22scrapePage%22%3Afunction%20scrapePage(details)%20%7B%0A%20%20function%20mergeUniqueObjects(originalArray%2C%20newArray)%20%7B%0A%20%20%20%20var%20uniqueObjects%20%3D%20newArray.filter(function%20(newObj)%20%7B%0A%20%20%20%20%20%20return%20!originalArray.some(function%20(originalObj)%20%7B%0A%20%20%20%20%20%20%20%20return%20originalObj.url%20%3D%3D%3D%20newObj.url%3B%0A%20%20%20%20%20%20%7D)%3B%0A%20%20%20%20%7D)%3B%0A%20%20%20%20return%20originalArray.concat(uniqueObjects)%3B%0A%20%20%7D%0A%20%20return%20new%20Promise(function%20(resolve)%20%7B%0A%20%20%20%20var%20totalList%20%3D%20%5B%5D%3B%0A%20%20%20%20var%20interval%20%3D%20setInterval(function%20()%20%7B%0A%20%20%20%20%20%20window.scrollBy(0%2C%20window.innerHeight%20%2B%20Math.floor(Math.random()%20*%20200))%3B%0A%20%20%20%20%20%20%2F%2FClick%20nsfw%20warning%0A%20%20%20%20%20%20if%20(document.querySelectorAll('.r-6wcr4z%20div%5Brole%3Dbutton%5D').length%20%3E%200)%20document.querySelectorAll('.r-6wcr4z%20div%5Brole%3Dbutton%5D')%5B0%5D.click()%3B%0A%20%20%20%20%20%20var%20listData%20%3D%20%5B%5D.map.call(document.querySelectorAll('section%20div%5Bdata-testid%3D%22cellInnerDiv%22%5D%20article.r-6416eg')%2C%20function%20(item)%20%7B%0A%20%20%20%20%20%20%20%20var%20scraped%20%3D%20%7B%7D%3B%0A%20%20%20%20%20%20%20%20var%20reblogSpan%20%3D%20item.querySelectorAll('span%5Bstyle%3D%22-webkit-line-clamp%3A%202%3B%22%5D')%3B%0A%20%20%20%20%20%20%20%20var%20reblogSpanText%20%3D%20reblogSpan.length%20%3E%200%20%3F%20reblogSpan%5B0%5D.textContent%20%3A%20null%3B%0A%20%20%20%20%20%20%20%20if%20(reblogSpanText)%20%7B%0A%20%20%20%20%20%20%20%20%20%20scraped.isReblog%20%3D%20!!reblogSpanText.match(%2FRetweeted%2F)%3B%0A%20%20%20%20%20%20%20%20%7D%0A%20%20%20%20%20%20%20%20var%20retweets%20%3D%20item.querySelectorAll('div%5Bdata-testid%3Dretweet%5D')%5B0%5D.textContent.trim()%3B%0A%20%20%20%20%20%20%20%20var%20votesRaw%20%3D%20item.querySelectorAll('div%5Bdata-testid%3Dlike%5D')%5B0%5D.textContent.trim()%3B%0A%20%20%20%20%20%20%20%20var%20comments%20%3D%20item.querySelectorAll('div%5Bdata-testid%3Dreply%5D')%5B0%5D.textContent.trim()%3B%0A%20%20%20%20%20%20%20%20var%20time%20%3D%20item.querySelector('time')%3B%0A%20%20%20%20%20%20%20%20if%20(time)%20%7B%0A%20%20%20%20%20%20%20%20%20%20scraped.created%20%3D%20new%20Date(time.getAttribute('datetime')).getTime()%3B%0A%20%20%20%20%20%20%20%20%7D%20else%20%7B%0A%20%20%20%20%20%20%20%20%20%20return%20false%3B%0A%20%20%20%20%20%20%20%20%7D%0A%20%20%20%20%20%20%20%20var%20permalink%20%3D%20time.closest('a').getAttribute('href')%20%7C%7C%20%22%22%3B%0A%20%20%20%20%20%20%20%20var%20linkA%20%3D%20item.querySelectorAll('a%5Brel%3D%22%20noopener%20noreferrer%22%5D')%3B%0A%20%20%20%20%20%20%20%20var%20images%20%3D%20item.querySelectorAll('div%5Baria-label%3DImage%5D%20img')%2C%0A%20%20%20%20%20%20%20%20%20%20imgUrls%20%3D%20%5B%5D%2C%0A%20%20%20%20%20%20%20%20%20%20href%2C%0A%20%20%20%20%20%20%20%20%20%20parts%3B%0A%20%20%20%20%20%20%20%20if%20(images.length%20%3E%200)%20%7B%0A%20%20%20%20%20%20%20%20%20%20images.forEach(function%20(image)%20%7B%0A%20%20%20%20%20%20%20%20%20%20%20%20href%20%3D%20image.getAttribute('src')%3B%0A%20%20%20%20%20%20%20%20%20%20%20%20parts%20%3D%20href.split('%26')%3B%0A%20%20%20%20%20%20%20%20%20%20%20%20imgUrls.push(parts%5B0%5D%20%2B%20'%26name%3D900x900')%3B%0A%20%20%20%20%20%20%20%20%20%20%7D)%3B%0A%20%20%20%20%20%20%20%20%7D%0A%20%20%20%20%20%20%20%20var%20domain%20%3D%20'twitter.com'%3B%0A%20%20%20%20%20%20%20%20scraped.title%20%3D%20item.querySelectorAll('div%20%3E%20div.r-bnwqim').length%20%3E%200%20%3F%20item.querySelectorAll('div%20%3E%20div.r-bnwqim')%5B0%5D.textContent%20%3A%20''%3B%0A%20%20%20%20%20%20%20%20scraped.link%20%3D%20linkA.length%20%3E%200%20%3F%20linkA%5B0%5D.getAttribute('href')%20%3A%20false%3B%0A%20%20%20%20%20%20%20%20scraped.votes%20%3D%20votesRaw.toLowerCase()%20%3F%20votesRaw.toLowerCase()%20%3A%201%3B%0A%20%20%20%20%20%20%20%20scraped.reblogs%20%3D%20retweets%20%3F%20parseInt(retweets%2C%2010)%20%3A%200%3B%0A%20%20%20%20%20%20%20%20scraped.commentCount%20%3D%20parseInt(comments%2C%2010)%20%7C%7C%200%3B%0A%20%20%20%20%20%20%20%20scraped.url%20%3D%20%22https%3A%2F%2F%22%20%2B%20domain%20%2B%20permalink%3B%0A%20%20%20%20%20%20%20%20scraped.displayName%20%3D%20item.querySelectorAll('a%20div.r-3s2u2q%20span%20span')%5B0%5D.textContent%3B%0A%20%20%20%20%20%20%20%20scraped.username%20%3D%20item.querySelectorAll('a%20div%20div%5Bdir%3Dltr%5D%20span')%5B0%5D.textContent%3B%0A%20%20%20%20%20%20%20%20scraped.images%20%3D%20imgUrls%3B%0A%20%20%20%20%20%20%20%20scraped.profileURL%20%3D%20%22https%3A%2F%2F%22%20%2B%20domain%20%2B%20item.querySelectorAll('article%5Bdata-testid%3Dtweet%5D%20.r-zl2h9q%20a')%5B0%5D.getAttribute('href')%3B%0A%20%20%20%20%20%20%20%20scraped.autoEmbed%20%3D%20'url'%3B%0A%20%20%20%20%20%20%20%20return%20scraped%3B%0A%20%20%20%20%20%20%7D).filter(function%20(item)%20%7B%0A%20%20%20%20%20%20%20%20return%20item%20!%3D%3D%20false%3B%0A%20%20%20%20%20%20%7D)%3B%0A%20%20%20%20%20%20console.log('Untitled-2%2071'%2C%20listData%2C%20totalList)%3B%0A%20%20%20%20%20%20totalList%20%3D%20mergeUniqueObjects(totalList%2C%20listData)%3B%0A%20%20%20%20%20%20if%20(totalList.length%20%3E%2010)%20%7B%0A%20%20%20%20%20%20%20%20console.log('Untitled-2%2087'%2C%20totalList)%3B%0A%20%20%20%20%20%20%20%20return%20resolve(%7B%0A%20%20%20%20%20%20%20%20%20%20list%3A%20listData%0A%20%20%20%20%20%20%20%20%7D)%3B%0A%20%20%20%20%20%20%7D%0A%20%20%20%20%7D%2C%201000)%3B%0A%20%20%7D)%3B%0A%7D%7D",
      "updateMethod": "screen",
      "userAgent": "Mozilla/5.0 (Linux; Win64; x64; rv:46.0)r Gecko/20100101 Firefox/68.0"
    }
],
"homepage": "https://gitlab.com/social-scripts/followall-social",
"name": "Followall social",
"description": "Facebook and Twitter public scripts for now. Contributions welcome"
}
